4 Análise exploratória de dados - Parte 2 – Análise de dados para o Planejamento Territorial
…
Podemos também consultar quais são os municípios que coletam 100% do esgoto produzido:

dados_cetesb |> 
  filter(atendimento_coleta_porc == 100)

# A tibble: 253 × 12
     ano uf    ugrhi municipio          codigo_ibge populacao_urbana
   <dbl> <chr> <dbl> <chr>                    <dbl>            <dbl>
 1  2022 SP        2 Areias                 3503505             2619
 2  2022 SP        2 Caçapava               3508504            81929
 3  2022 SP        2 Cachoeira Paulista     3508603            27623
 4  2022 SP        2 Jambeiro               3524907             3269
 5  2022 SP        2 Pindamonhangaba        3538006           165703
 6  2022 SP        2 Taubaté                3554102           313898
 7  2022 SP        4 Altinópolis            3501004            14172
 8  2022 SP        4 Caconde                3508702            12975
 9  2022 SP        4 Casa Branca            3510807            25075
10  2022 SP        4 Jardinópolis           3525102            43706
# ℹ 243 more rows
# ℹ 6 more variables: atendimento_coleta_porc <dbl>,
#   atendimento_tratamento_porc <dbl>, eficiencia <dbl>,
#   carga_poluidora_potencial <dbl>, carga_poluidora_remancescente <dbl>,
#   ictem <dbl>

Destes, podemos filtrar os que tratem 100% do esgoto coletado:

dados_cetesb |> 
  filter(atendimento_coleta_porc == 100, atendimento_tratamento_porc == 100)

# A tibble: 218 × 12
     ano uf    ugrhi municipio               codigo_ibge populacao_urbana
   <dbl> <chr> <dbl> <chr>                         <dbl>            <dbl>
 1  2022 SP        2 Cachoeira Paulista          3508603            27623
 2  2022 SP        2 Jambeiro                    3524907             3269
 3  2022 SP        2 Pindamonhangaba             3538006           165703
 4  2022 SP        2 Taubaté                     3554102           313898
 5  2022 SP        4 Altinópolis                 3501004            14172
 6  2022 SP        4 Santa Cruz da Esperança     3546256             1467
 7  2022 SP        4 Serrana                     3551504            45677
 8  2022 SP        4 Tambaú                      3553302            20663
 9  2022 SP        5 Corumbataí                  3512704             2200
10  2022 SP        5 Holambra                    3519055            11303
# ℹ 208 more rows
# ℹ 6 more variables: atendimento_coleta_porc <dbl>,
#   atendimento_tratamento_porc <dbl>, eficiencia <dbl>,
#   carga_poluidora_potencial <dbl>, carga_poluidora_remancescente <dbl>,
#   ictem <dbl>

As possibilidades são muitas! Podemos combinar várias condições utilizando os operadores lógicos (como o | (OU) e o ! (NEGAÇÃO).

4.6 Selecionando colunas com select()

A função select() é utilizada para selecionar colunas específicas de um data frame.

Por exemplo, podemos selecionar apenas as colunas municipio, populacao_urbana e atendimento_coleta_porc dos dados da CETESB:

dados_cetesb |>
  select(municipio, populacao_urbana, atendimento_coleta_porc)

# A tibble: 645 × 3
   municipio               populacao_urbana atendimento_coleta_porc
   <chr>                              <dbl>                   <dbl>
 1 Campos do Jordão                   52384                    52.6
 2 Santo Antônio do Pinhal             4067                    46.7
 3 São Bento do Sapucaí                5251                    98  
 4 Aparecida                          35684                    70  
 5 Arapeí                              1844                    95.6
 6 Areias                              2619                   100  
 7 Bananal                             8808                    88.1
 8 Caçapava                           81929                   100  
 9 Cachoeira Paulista                 27623                   100  
10 Canas                               4890                    84.6
# ℹ 635 more rows

Podemos também indicar quais colunas queremos excluir, utilizando o operador - antes do nome da coluna. Por exemplo, para excluir as colunas ano e uf, podemos fazer o seguinte:

dados_cetesb |>
  select(-ano, -uf)

# A tibble: 645 × 10
   ugrhi municipio           codigo_ibge populacao_urbana atendimento_coleta_p…¹
   <dbl> <chr>                     <dbl>            <dbl>                  <dbl>
 1     1 Campos do Jordão        3509700            52384                   52.6
 2     1 Santo Antônio do P…     3548203             4067                   46.7
 3     1 São Bento do Sapuc…     3548609             5251                   98  
 4     2 Aparecida               3502507            35684                   70  
 5     2 Arapeí                  3503158             1844                   95.6
 6     2 Areias                  3503505             2619                  100  
 7     2 Bananal                 3504909             8808                   88.1
 8     2 Caçapava                3508504            81929                  100  
 9     2 Cachoeira Paulista      3508603            27623                  100  
10     2 Canas                   3509957             4890                   84.6
# ℹ 635 more rows
# ℹ abbreviated name: ¹​atendimento_coleta_porc
# ℹ 5 more variables: atendimento_tratamento_porc <dbl>, eficiencia <dbl>,
#   carga_poluidora_potencial <dbl>, carga_poluidora_remancescente <dbl>,
#   ictem <dbl>
…
A sintaxe básica da função mutate() é:

base_de_dados |> 
  mutate(nome_da_nova_coluna = o_que_queremos_que_seja_salvo_nela)

Por exemplo, podemos criar uma coluna nova chamada populacao_urbana_mil que representa a população urbana em mil habitantes:

dados_cetesb |>
  # selecionando as colunas municipio e populacao_urbana
  # para facilitar a visualização
  select(municipio, populacao_urbana) |>
  mutate(populacao_urbana_mil = populacao_urbana / 1000)

# A tibble: 645 × 3
   municipio               populacao_urbana populacao_urbana_mil
   <chr>                              <dbl>                <dbl>
 1 Campos do Jordão                   52384                52.4 
 2 Santo Antônio do Pinhal             4067                 4.07
 3 São Bento do Sapucaí                5251                 5.25
 4 Aparecida                          35684                35.7 
 5 Arapeí                              1844                 1.84
 6 Areias                              2619                 2.62
 7 Bananal                             8808                 8.81
 8 Caçapava                           81929                81.9 
 9 Cachoeira Paulista                 27623                27.6 
10 Canas                               4890                 4.89
# ℹ 635 more rows

A função mutate() também pode ser utilizada para modificar colunas existentes. Por exemplo, podemos mudar a classe de algumas colunas:

dados_cetesb |>
  mutate(
    ugrhi = as.character(ugrhi),  # convertendo ugrhi para character
    codigo_ibge = as.character(codigo_ibge)  # convertendo codigo_ibge para character
  )

# A tibble: 645 × 12
     ano uf    ugrhi municipio               codigo_ibge populacao_urbana
   <dbl> <chr> <chr> <chr>                   <chr>                  <dbl>
 1  2022 SP    1     Campos do Jordão        3509700                52384
 2  2022 SP    1     Santo Antônio do Pinhal 3548203                 4067
 3  2022 SP    1     São Bento do Sapucaí    3548609                 5251
 4  2022 SP    2     Aparecida               3502507                35684
 5  2022 SP    2     Arapeí                  3503158                 1844
 6  2022 SP    2     Areias                  3503505                 2619
 7  2022 SP    2     Bananal                 3504909                 8808
 8  2022 SP    2     Caçapava                3508504                81929
 9  2022 SP    2     Cachoeira Paulista      3508603                27623
10  2022 SP    2     Canas                   3509957                 4890
# ℹ 635 more rows
# ℹ 6 more variables: atendimento_coleta_porc <dbl>,
#   atendimento_tratamento_porc <dbl>, eficiencia <dbl>,
#   carga_poluidora_potencial <dbl>, carga_poluidora_remancescente <dbl>,
#   ictem <dbl>

4.8 Ordenando dados com arrange()

A função arrange() é utilizada para ordenar as linhas de um data frame com base em uma ou mais colunas.

Podemos ordenar os dados da CETESB pela coluna carga_poluidora_remancescente, em ordem crescente:

dados_cetesb |>
  arrange(carga_poluidora_remancescente)

# A tibble: 645 × 12
     ano uf    ugrhi municipio              codigo_ibge populacao_urbana
   <dbl> <chr> <dbl> <chr>                        <dbl>            <dbl>
 1  2022 SP       14 Ribeirão Grande            3543253             2427
 2  2022 SP       13 Trabiju                    3554755             1609
 3  2022 SP       21 Borá                       3507209              653
 4  2022 SP       15 Turmalina                  3555307             1186
 5  2022 SP        2 Jambeiro                   3524907             3269
 6  2022 SP       18 Santa Salete               3547650              882
 7  2022 SP       18 Santana da Ponte Pensa     3547205              968
 8  2022 SP       15 Mesópolis                  3529658             1481
 9  2022 SP       18 Nova Canaã Paulista        3532843              759
10  2022 SP       19 Turiúba                    3555208             1657
# ℹ 635 more rows
# ℹ 6 more variables: atendimento_coleta_porc <dbl>,
#   atendimento_tratamento_porc <dbl>, eficiencia <dbl>,
#   carga_poluidora_potencial <dbl>, carga_poluidora_remancescente <dbl>,
#   ictem <dbl>

Também podemos ordenar os dados em ordem decrescente, utilizando a função desc():

dados_cetesb |>
  arrange(desc(populacao_urbana))

# A tibble: 645 × 12
     ano uf    ugrhi municipio             codigo_ibge populacao_urbana
   <dbl> <chr> <dbl> <chr>                       <dbl>            <dbl>
 1  2022 SP        6 São Paulo                 3550308         12284940
 2  2022 SP        6 Guarulhos                 3518800          1404694
 3  2022 SP        5 Campinas                  3509502          1202203
 4  2022 SP        6 São Bernardo do Campo     3548708           835657
 5  2022 SP        6 Santo André               3547809           723889
 6  2022 SP        2 São José dos Campos       3549904           722310
 7  2022 SP        4 Ribeirão Preto            3543402           718072
 8  2022 SP        6 Osasco                    3534401           701428
 9  2022 SP       10 Sorocaba                  3552205           688252
10  2022 SP        6 Mauá                      3529401           481725
# ℹ 635 more rows
# ℹ 6 more variables: atendimento_coleta_porc <dbl>,
#   atendimento_tratamento_porc <dbl>, eficiencia <dbl>,
#   carga_poluidora_potencial <dbl>, carga_poluidora_remancescente <dbl>,
#   ictem <dbl>

4.9 Agrupando dados com group_by()

A função group_by() é utilizada para agrupar os dados com base em uma ou mais colunas. Isso é especialmente útil quando queremos aplicar funções de resumo a cada grupo.

Por exemplo, podemos agrupar os dados da CETESB pela coluna ugrhi (Unidade de Gerenciamento de Recursos Hídricos) e calcular a soma da população urbana para cada UGRHI:

dados_cetesb |>
  group_by(ugrhi) 

# A tibble: 645 × 12
# Groups:   ugrhi [22]
     ano uf    ugrhi municipio               codigo_ibge populacao_urbana
   <dbl> <chr> <dbl> <chr>                         <dbl>            <dbl>
 1  2022 SP        1 Campos do Jordão            3509700            52384
 2  2022 SP        1 Santo Antônio do Pinhal     3548203             4067
 3  2022 SP        1 São Bento do Sapucaí        3548609             5251
 4  2022 SP        2 Aparecida                   3502507            35684
 5  2022 SP        2 Arapeí                      3503158             1844
 6  2022 SP        2 Areias                      3503505             2619
 7  2022 SP        2 Bananal                     3504909             8808
 8  2022 SP        2 Caçapava                    3508504            81929
 9  2022 SP        2 Cachoeira Paulista          3508603            27623
10  2022 SP        2 Canas                       3509957             4890
# ℹ 635 more rows
# ℹ 6 more variables: atendimento_coleta_porc <dbl>,
#   atendimento_tratamento_porc <dbl>, eficiencia <dbl>,
#   carga_poluidora_potencial <dbl>, carga_poluidora_remancescente <dbl>,
#   ictem <dbl>
…
