8 Prática - Regressão Espacial – Análise de dados para o Planejamento Territorial
…
8.4 Explorando os dados

Os arquivos geoespaciais que trabalharemos são chamados de simple features (sf) no R. A sua estrutura é semelhante à de uma tabela, mas trazendo informações do Sistema de Referência de Coordenadas (CRS) e uma variável adicional: a geometria (geom ou geometry), com as coordenadas que permitem mapear os pontos, linhas ou polígonos.

Executando o nome do objeto é possível obter algumas dessas informações.

agua_rede_sf

Simple feature collection with 5567 features and 25 fields
Geometry type: MULTIPOLYGON
Dimension:     XY
Bounding box:  xmin: -73.99045 ymin: -33.75208 xmax: -28.83609 ymax: 5.271841
Geodetic CRS:  SIRGAS 2000
# A tibble: 5,567 × 26
   ID_IBGE DOMICIL  REDE PROPREDE ID_SNIS NOME_MUN UF    REGIAO    PIB RENDAPITA
     <dbl>   <int> <int>    <dbl>   <int> <chr>    <chr> <chr>   <dbl>     <dbl>
 1 1100015    7270  1774    0.244  110001 Alta Fl… RO    Norte  1.67e5      468.
 2 1100023   27166  9576    0.352  110002 Ariquem… RO    Norte  6.13e5      673.
 3 1100031    1975   474    0.24   110003 Cabixi   RO    Norte  4.17e4      447.
 4 1100049   24215 18428    0.761  110004 Cacoal   RO    Norte  5.83e5      719.
 5 1100056    5348  1816    0.340  110005 Cerejei… RO    Norte  8.69e4      553.
 6 1100064    5959  3617    0.607  110006 Colorad… RO    Norte  1.09e5      508.
 7 1100072    2649   344    0.130  110007 Corumbi… RO    Norte  5.84e4      402.
 8 1100080    3696   609    0.165  110008 Costa M… RO    Norte  4.97e4      353.
 9 1100098    8683  2385    0.275  110009 Espig<e… RO    Norte  1.53e5      572.
10 1100106   10684  4780    0.447  110010 Guajar<… RO    Norte  2.35e5      476.
# ℹ 5,557 more rows
# ℹ 16 more variables: GINI <dbl>, IDH <dbl>, IDH_CLASS <chr>, GE012 <int>,
#   AG001 <int>, AG020 <dbl>, AG022 <int>, CONSUMO1 <dbl>, CONSUMO2 <dbl>,
#   .fitted <dbl>, .resid <dbl>, .std.resid <dbl>, .hat <dbl>, .sigma <dbl>,
#   .cooksd <dbl>, geom <MULTIPOLYGON [°]>
…
Agora temos as colunas LAT e LON, mantendo a coluna geom:

agua_rede_sf_sp_centroide |> 
  select(LAT, LON, geom)

Simple feature collection with 510 features and 2 fields
Geometry type: MULTIPOLYGON
Dimension:     XY
Bounding box:  xmin: -53.10986 ymin: -25.31232 xmax: -44.16137 ymax: -19.77966
Geodetic CRS:  SIRGAS 2000
# A tibble: 510 × 3
     LAT   LON                                                              geom
   <dbl> <dbl>                                                <MULTIPOLYGON [°]>
 1 -21.6 -51.1 (((-51.09093 -21.47214, -51.08788 -21.46944, -51.08722 -21.46444…
 2 -21.3 -49.7 (((-49.69668 -21.3443, -49.69703 -21.34019, -49.69894 -21.33772,…
 3 -21.9 -46.7 (((-46.73069 -21.9447, -46.73192 -21.93454, -46.73487 -21.9303, …
 4 -22.5 -46.6 (((-46.635 -22.45781, -46.62814 -22.45148, -46.62519 -22.44678, …
 5 -22.9 -49.3 (((-49.28903 -22.77028, -49.28139 -22.77217, -49.27747 -22.77183…
 6 -22.6 -47.9 (((-47.86292 -22.60939, -47.86517 -22.61207, -47.86423 -22.61583…
 7 -22.6 -49.1 (((-49.0167 -22.38629, -49.00953 -22.38424, -48.99643 -22.38395,…
 8 -23.5 -47.9 (((-47.86567 -23.51306, -47.86243 -23.50943, -47.85984 -23.51047…
 9 -21.9 -51.4 (((-51.37102 -21.87702, -51.36865 -21.87703, -51.36898 -21.87891…
10 -20.5 -49.1 (((-49.14974 -20.57783, -49.1535 -20.57674, -49.15553 -20.57754,…
# ℹ 500 more rows
…
